[
  {
    "chuteMedio": null,
    "radiantWinMedia": null,
    "tamanho": 0
  },
  {
    "chuteMedio": null,
    "radiantWinMedia": null,
    "tamanho": 0
  },
  {
    "chuteMedio": 0.3356666666666683,
    "radiantWinMedia": 0.49754901960784315,
    "tamanho": 408
  },
  {
    "chuteMedio": 0.43112259970457795,
    "radiantWinMedia": 0.5391432791728212,
    "tamanho": 677
  },
  {
    "chuteMedio": 0.5840000000000017,
    "radiantWinMedia": 0.4740740740740741,
    "tamanho": 135
  },
  {
    "chuteMedio": 0.6389999999999998,
    "radiantWinMedia": 0.45925925925925926,
    "tamanho": 135
  },
  {
    "chuteMedio": null,
    "radiantWinMedia": null,
    "tamanho": 0
  },
  {
    "chuteMedio": null,
    "radiantWinMedia": null,
    "tamanho": 0
  }
]