[
  {
    "chuteMedio": null,
    "radiantWinMedia": null,
    "tamanho": 0
  },
  {
    "chuteMedio": null,
    "radiantWinMedia": null,
    "tamanho": 0
  },
  {
    "chuteMedio": 0.3484797687861261,
    "radiantWinMedia": 0.30057803468208094,
    "tamanho": 173
  },
  {
    "chuteMedio": 0.41867857142857146,
    "radiantWinMedia": 0.42857142857142855,
    "tamanho": 28
  },
  {
    "chuteMedio": 0.5554166666666667,
    "radiantWinMedia": 0.16666666666666666,
    "tamanho": 12
  },
  {
    "chuteMedio": 0.7369531249999998,
    "radiantWinMedia": 0.4375,
    "tamanho": 128
  },
  {
    "chuteMedio": 0.7898809523809524,
    "radiantWinMedia": 0.6190476190476191,
    "tamanho": 42
  },
  {
    "chuteMedio": 0.9957108843537418,
    "radiantWinMedia": 0.6598639455782312,
    "tamanho": 294
  }
]