[
  {
    "chuteMedio": 0.002618320610687023,
    "radiantWinMedia": 0.015267175572519083,
    "tamanho": 131
  },
  {
    "chuteMedio": 0.1728,
    "radiantWinMedia": 0.6,
    "tamanho": 5
  },
  {
    "chuteMedio": 0.3045,
    "radiantWinMedia": 1,
    "tamanho": 2
  },
  {
    "chuteMedio": 0.4558918918918918,
    "radiantWinMedia": 0.3783783783783784,
    "tamanho": 37
  },
  {
    "chuteMedio": 0.5622452830188679,
    "radiantWinMedia": 0.4528301886792453,
    "tamanho": 53
  },
  {
    "chuteMedio": 0.6647134831460657,
    "radiantWinMedia": 0.6292134831460674,
    "tamanho": 178
  },
  {
    "chuteMedio": null,
    "radiantWinMedia": null,
    "tamanho": 0
  },
  {
    "chuteMedio": null,
    "radiantWinMedia": null,
    "tamanho": 0
  }
]